%YAML 1.1
%TAG !u! tag:unity3d.com,2011:
--- !u!114 &11400000
MonoBehaviour:
  m_ObjectHideFlags: 0
  m_CorrespondingSourceObject: {fileID: 0}
  m_PrefabInternal: {fileID: 0}
  m_GameObject: {fileID: 0}
  m_Enabled: 1
  m_EditorHideFlags: 0
  m_Script: {fileID: 11500000, guid: c8193a76bdc5ab340bd8c3e66ee43e5f, type: 3}
  m_Name: D2. Meet Mary
  m_EditorClassIdentifier: 
  storyText: "Something about Mary\r\nIgnite interest in math\r\nMAry makes mental
    note about you and becomes a tutor\r\nShe introduces you to Babbage\n\n1. Continue
    to speak with Babbage"
  nextStates:
  - {fileID: 11400000, guid: b3b7fc2ff0521ff438d07815bbac1c25, type: 2}
