%YAML 1.1
%TAG !u! tag:unity3d.com,2011:
--- !u!114 &11400000
MonoBehaviour:
  m_ObjectHideFlags: 0
  m_CorrespondingSourceObject: {fileID: 0}
  m_PrefabInternal: {fileID: 0}
  m_GameObject: {fileID: 0}
  m_Enabled: 1
  m_EditorHideFlags: 0
  m_Script: {fileID: 11500000, guid: c8193a76bdc5ab340bd8c3e66ee43e5f, type: 3}
  m_Name: B2. Immobility
  m_EditorClassIdentifier: 
  storyText: "Unfortunately, you contracted the measles and were mostly bedridden
    for nearly 3 years! That was rough! Fortunately, you are feeling much better now
    and are ready to continue with your academic studies.\r\n\r\n1. Continue with
    your mathematical pursuits..."
  nextStates:
  - {fileID: 11400000, guid: 8a27e0ad5f494d446b6207ec7a49ed2a, type: 2}
